[
	{	
        "id":"1",
        "avatar": "img/user1.png",
        "nome": "Jenniffer Gonçalves",
        "profissao": "Desinger @ InWave Interactive",
        "password":"123456789",
        "humor":"Gosto de focar no resultado utilizando a metodologia mais simples possível.",
        "apelido": "Jenni",
        "identidade": "41.875.789-6",
        "cpf": "533.895.588-10",
        "fixo": "81 3022-3399",
        "celular": "81 99999-9999",
        "email": "jenni@hotmail.com",
        "link": "37",
        "comment": "12",
        "artigo": [
            {
                "id": "1",
                "texto": "Lorem ipsum dolor sit amet, consectetur adipiscing elit. In eu efficitur felis. Cras in nibh ex. Sed egestas elit mi.",
                "link": "16",
                "comment": "3",
                "tempo": "11:29"
            }
        ],
        "amigos": [
            {
                "nome": "Cora Carolina", 
                "image": "img/user1.png", 
                "profissao":"Diretora de Comercial @ DC1",
                "email": "coracarolina@dc1.com.br",
                "celular": "+55 (81) 98666-7676",
                "fixo": " +55 (81) 3012-8049",
                "status":"online"
            },
            {
                "nome": "Angélica Freitas", 
                "image": "img/user2.png", 
                "profissao":"Analista de Sistemas @ AS2",
                "email": "angelica.freitas@as2.com.br",
                "celular": "+55 (91) 96789-9054",
                "fixo": " +55 (91) 7690-0987",
                "status":"offline"
            },
            {
                "nome": "Cecília Meireles", 
                "image": "img/user3.png", 
                "profissao":"Diretora de Arte @ DA",
                "email": "cecilia@da.com.br",
                "celular": "+55 (83) 98906-5423",
                "fixo": " +55 (83) 4983-8899",
                "status":"offline"
            },
            {
                "nome": "Patrícia Galvão", 
                "image": "img/user14.png", 
                "profissao":"Diretora de Digital @ DD",
                "email": "patricia@dd.com.br",
                "celular": "+55 (61) 96354-8976",
                "fixo": " +55 (61) 6728-0974",
                "status":"online"
            },
            {
                "nome": "Carlos Drummond de Andrade", 
                "image": "img/user15.png", 
                "profissao":"Engenheiro de Software @ ES1",
                "email": "carlos@es1.com.br",
                "celular": "+55 (11) 96753-9076",
                "fixo": " +55 (11) 2134-3421",
                "status":"online"
            },
            {
                "nome": "Fernanda Silva", 
                "image": "img/user4.png", 
                "profissao":"Diretora de Marketing @ DM9",
                "email": "fernanda@dm9.com.br",
                "celular": "+55 (11) 97676-7676",
                "fixo": " +55 (11) 4983-8899",
                "status":"online"
            },
            {
                "nome": "Carol Samora", 
                "image": "img/user5.png",
                "profissao":"Marketing Manager @ Africa",
                "email": "fernanda@dm9.com.br",
                "celular": "+55 (11) 97676-7676",
                "fixo": " +55 (11) 4983-8899",
                "status":"offline"
            },
            {
                "nome": "Leandro Souza", 
                "image": "img/user6.png",
                "profissao":"Diretor de Planejamento @ Elu!",
                "email": "fernanda@dm9.com.br",
                "celular": "+55 (11) 97676-7676",
                "fixo": " +55 (11) 4983-8899",
                "status":"offline"
            },
            {
                "nome": "Carol Samora", 
                "image": "img/user7.png",
                "profissao":"Diretor de Planejamento @ Elu!",
                "email": "fernanda@dm9.com.br",
                "celular": "+55 (11) 97676-7676",
                "fixo": " +55 (11) 4983-8899",
                "status":"offline"
            },
            {
                "nome": "Fernanda Silva", 
                "image": "img/user8.png", 
                "profissao":"Diretora de Marketing @ DM9",
                "email": "fernanda@dm9.com.br",
                "celular": "+55 (11) 97676-7676",
                "fixo": " +55 (11) 4983-8899",
                "status":"offline"
            },
            {
                "nome": "Jeniffer Gonçalves", 
                "image": "img/user9.png", 
                "profissao":"Diretora de Marketing @ DM9",
                "email": "jennifer.goncalves@inwave.com.br",
                "celular": "+55 (11) 97676-7676",
                "fixo": " +55 (11) 4983-8899",
                "status":"online"
            },
            {
                "nome": "Carol Samora", 
                "image": "img/user10.png", 
                "profissao":"Diretora de Marketing @ DM9",
                "email": "carol.samora@inwave.com.br",
                "celular": "+55 (11) 97676-7676",
                "fixo": " +55 (11) 4983-8899",
                "status":"online"
            },
            {
                "nome": "Fernanda Silva", 
                "image": "img/user11.png", 
                "profissao":"Diretora de Marketing @ DM9",
                "email": "fernanda@dm9.com.br",
                "celular": "+55 (11) 97676-7676",
                "fixo": " +55 (11) 4983-8899",
                "status":"online"
            },
            {
                "nome": "Jeniffer Gonçalves", 
                "image": "img/user12.png", 
                "profissao":"Diretora de Marketing @ DM9",
                "email": "jennifer.goncalves@inwave.com.br",
                "celular": "+55 (11) 97676-7676",
                "fixo": " +55 (11) 4983-8899",
                "status":"online"
            },
            {
                "nome": "Carol Samora", 
                "image": "img/user13.png", 
                "profissao":"Diretora de Marketing @ DM9",
                "email": "carol.samora@inwave.com.br",
                "celular": "+55 (11) 97676-7676",
                "fixo": " +55 (11) 4983-8899",
                "status":"offline"
            }

        ],
        "conquistas": [
            {"nome": "Fulano", "image": "img/conquista1.png"},
            {"nome": "Fulano", "image": "img/conquista2.png"},
            {"nome": "Fulano", "image": "img/conquista3.png"},
            {"nome": "Fulano", "image": "img/conquista4.png"},
            {"nome": "Fulano", "image": "img/conquista5.png"},
            {"nome": "Fulano", "image": "img/conquista6.png"},
            {"nome": "Fulano", "image": "img/conquista7.png"},
            {"nome": "Fulano", "image": "img/conquista8.png"},
            {"nome": "Fulano", "image": "img/conquista9.png"},
            {"nome": "Fulano", "image": "img/conquista10.png"}

        ],
        "redeSocial": [
            {"nome": "linkedin", "ico": "fa-linkedin", "bg": "font-grey-sure-5"},
            {"nome": "facebook", "ico": "fa-facebook", "bg": "font-blue-dark-2"},
            {"nome": "twitter", "ico": "fa-twitter", "bg": "font-blue-sure"},
            {"nome": "instagram", "ico": "fa-instagram", "bg": "font-orange-sure"},
            {"nome": "googleplus", "ico": "ion-social-googleplus", "bg": "font-blue-sure"}
        ]
   },
   {    
        "id":"2",
        "avatar": "img/user2.png",
        "nome": "Fulana de Tal da Silva",
        "profissao": "Front-End @ InWave Interactive",
        "password":"123456789",
        "humor":"Gosto de focar no resultado utilizando a metodologia mais simples possível.",
        "apelido": "Fufu",
        "identidade": "4.032.894-40",
        "cpf": "382.207.911-10",
        "fixo": "81 3033-3344",
        "celular": "81 99999-9999",
        "email": "jenni@hotmail.com",
        "link": "37",
        "comment": "12",
        "artigo": [
            {
                "id": "2",
                "texto": "Cras in nibh ex. Sed egestas elit mi, sit amet lacinia tellus lacinia in. Pellentesque rhoncus sem libero posuere in.",
                "link": "18",
                "comment": "3",
                "tempo": "13:10"
            }
        ],
        "amigos": [
            {
                "nome": "Fernanda Silva", 
                "image": "img/user4.png", 
                "profissao":"Diretora de Marketing @ DM9",
                "email": "fernanda@dm9.com.br",
                "celular": "+55 (11) 97676-7676",
                "fixo": " +55 (11) 4983-8899"
            },
            {
                "nome": "Carol Samora", 
                "image": "img/user5.png",
                "profissao":"Marketing Manager @ Africa",
                "email": "fernanda@dm9.com.br",
                "celular": "+55 (11) 97676-7676",
                "fixo": " +55 (11) 4983-8899"
            },
            {
                "nome": "Leandro Souza", 
                "image": "img/user6.png",
                "profissao":"Diretor de Planejamento @ Elu!",
                "email": "fernanda@dm9.com.br",
                "celular": "+55 (11) 97676-7676",
                "fixo": " +55 (11) 4983-8899"
            },
            {
                "nome": "Carol Samora", 
                "image": "img/user7.png",
                "profissao":"Diretor de Planejamento @ Elu!",
                "email": "fernanda@dm9.com.br",
                "celular": "+55 (11) 97676-7676",
                "fixo": " +55 (11) 4983-8899"
            },
            {
                "nome": "Fernanda Silva", 
                "image": "img/user8.png", 
                "profissao":"Diretora de Marketing @ DM9",
                "email": "fernanda@dm9.com.br",
                "celular": "+55 (11) 97676-7676",
                "fixo": " +55 (11) 4983-8899"
            },
            {
                "nome": "Jeniffer Gonçalves", 
                "image": "img/user9.png", 
                "profissao":"Diretora de Marketing @ DM9",
                "email": "jennifer.goncalves@inwave.com.br",
                "celular": "+55 (11) 97676-7676",
                "fixo": " +55 (11) 4983-8899"
            },
            {
                "nome": "Carol Samora", 
                "image": "img/user10.png", 
                "profissao":"Diretora de Marketing @ DM9",
                "email": "carol.samora@inwave.com.br",
                "celular": "+55 (11) 97676-7676",
                "fixo": " +55 (11) 4983-8899"
            },
            {
                "nome": "Fernanda Silva", 
                "image": "img/user11.png", 
                "profissao":"Diretora de Marketing @ DM9",
                "email": "fernanda@dm9.com.br",
                "celular": "+55 (11) 97676-7676",
                "fixo": " +55 (11) 4983-8899"
            },
            {
                "nome": "Jeniffer Gonçalves", 
                "image": "img/user12.png", 
                "profissao":"Diretora de Marketing @ DM9",
                "email": "jennifer.goncalves@inwave.com.br",
                "celular": "+55 (11) 97676-7676",
                "fixo": " +55 (11) 4983-8899"
            },
            {
                "nome": "Carol Samora", 
                "image": "img/user13.png", 
                "profissao":"Diretora de Marketing @ DM9",
                "email": "carol.samora@inwave.com.br",
                "celular": "+55 (11) 97676-7676",
                "fixo": " +55 (11) 4983-8899"
            }
        ],
        "conquistas": [
            {"nome": "Fulano", "image": "img/conquista1.png"},
            {"nome": "Fulano", "image": "img/conquista2.png"},
            {"nome": "Fulano", "image": "img/conquista3.png"},
            {"nome": "Fulano", "image": "img/conquista4.png"},
            {"nome": "Fulano", "image": "img/conquista5.png"},
            {"nome": "Fulano", "image": "img/conquista6.png"},
            {"nome": "Fulano", "image": "img/conquista7.png"},
            {"nome": "Fulano", "image": "img/conquista8.png"},
            {"nome": "Fulano", "image": "img/conquista9.png"},
            {"nome": "Fulano", "image": "img/conquista10.png"}

        ],
        "redeSocial": [
            {"nome": "linkedin", "ico": "fa-linkedin", "bg": "font-grey-sure-5"},
            {"nome": "facebook", "ico": "fa-facebook", "bg": "font-blue-dark-2"},
            {"nome": "twitter", "ico": "fa-twitter", "bg": "font-blue-sure"},
            {"nome": "instagram", "ico": "fa-instagram", "bg": "font-orange-sure"},
            {"nome": "googleplus", "ico": "ion-social-googleplus", "bg": "font-blue-sure"}
        ]
   },
   {    
        "id":"3",
        "avatar": "img/img-user-perfil.png",
        "nome": "Jeniffer Gonçalves",
        "profissao": "Marketing Manager @ InWave Interactive",
        "password":"123456789",
        "humor":"Gosto de focar no resultado utilizando a metodologia mais simples possível.",
        "apelido": "JJ",
        "identidade": "4.032.894-40",
        "cpf": "382.207.911-10",
        "fixo": "81 3033-3344",
        "celular": "81 99999-9999",
        "email": "jennifer.goncalves@inwave.com.br",
        "link": "37",
        "comment": "12",
        "artigo": [
            {
                "id": "3",
                "texto": "Cras in nibh ex. Sed egestas elit mi, sit amet lacinia tellus lacinia in. Pellentesque rhoncus sem libero posuere in.",
                "link": "18",
                "comment": "3",
                "tempo": "21:09"
            }
        ],
        "amigos": [
            {
                "nome": "Cora Carolina", 
                "image": "img/user1.png", 
                "profissao":"Diretora de Comercial @ DC1",
                "email": "coracarolina@dc1.com.br",
                "celular": "+55 (81) 98666-7676",
                "fixo": " +55 (81) 3012-8049",
                "status":"online"
            },
            {
                "nome": "Angélica Freitas", 
                "image": "img/user2.png", 
                "profissao":"Analista de Sistemas @ AS2",
                "email": "angelica.freitas@as2.com.br",
                "celular": "+55 (91) 96789-9054",
                "fixo": " +55 (91) 7690-0987",
                "status":"offline"
            },
            {
                "nome": "Cecília Meireles", 
                "image": "img/user3.png", 
                "profissao":"Diretora de Arte @ DA",
                "email": "cecilia@da.com.br",
                "celular": "+55 (83) 98906-5423",
                "fixo": " +55 (83) 4983-8899",
                "status":"offline"
            },
            {
                "nome": "Patrícia Galvão", 
                "image": "img/user14.png", 
                "profissao":"Diretora de Digital @ DD",
                "email": "patricia@dd.com.br",
                "celular": "+55 (61) 96354-8976",
                "fixo": " +55 (61) 6728-0974",
                "status":"online"
            },
            {
                "nome": "Carlos Drummond de Andrade", 
                "image": "img/user15.png", 
                "profissao":"Engenheiro de Software @ ES1",
                "email": "carlos@es1.com.br",
                "celular": "+55 (11) 96753-9076",
                "fixo": " +55 (11) 2134-3421",
                "status":"online"
            },
            {
                "nome": "Fernanda Silva", 
                "image": "img/user4.png", 
                "profissao":"Diretora de Marketing @ DM9",
                "email": "fernanda@dm9.com.br",
                "celular": "+55 (11) 97676-7676",
                "fixo": " +55 (11) 4983-8899",
                "status":"online"
            },
            {
                "nome": "Carol Samora", 
                "image": "img/user5.png",
                "profissao":"Marketing Manager @ Africa",
                "email": "fernanda@dm9.com.br",
                "celular": "+55 (11) 97676-7676",
                "fixo": " +55 (11) 4983-8899",
                "status":"offline"
            },
            {
                "nome": "Leandro Souza", 
                "image": "img/user6.png",
                "profissao":"Diretor de Planejamento @ Elu!",
                "email": "fernanda@dm9.com.br",
                "celular": "+55 (11) 97676-7676",
                "fixo": " +55 (11) 4983-8899",
                "status":"offline"
            },
            {
                "nome": "Carol Samora", 
                "image": "img/user7.png",
                "profissao":"Diretor de Planejamento @ Elu!",
                "email": "fernanda@dm9.com.br",
                "celular": "+55 (11) 97676-7676",
                "fixo": " +55 (11) 4983-8899",
                "status":"offline"
            },
            {
                "nome": "Fernanda Silva", 
                "image": "img/user8.png", 
                "profissao":"Diretora de Marketing @ DM9",
                "email": "fernanda@dm9.com.br",
                "celular": "+55 (11) 97676-7676",
                "fixo": " +55 (11) 4983-8899",
                "status":"offline"
            },
            {
                "nome": "Jeniffer Gonçalves", 
                "image": "img/user9.png", 
                "profissao":"Diretora de Marketing @ DM9",
                "email": "jennifer.goncalves@inwave.com.br",
                "celular": "+55 (11) 97676-7676",
                "fixo": " +55 (11) 4983-8899",
                "status":"online"
            },
            {
                "nome": "Carol Samora", 
                "image": "img/user10.png", 
                "profissao":"Diretora de Marketing @ DM9",
                "email": "carol.samora@inwave.com.br",
                "celular": "+55 (11) 97676-7676",
                "fixo": " +55 (11) 4983-8899",
                "status":"online"
            },
            {
                "nome": "Fernanda Silva", 
                "image": "img/user11.png", 
                "profissao":"Diretora de Marketing @ DM9",
                "email": "fernanda@dm9.com.br",
                "celular": "+55 (11) 97676-7676",
                "fixo": " +55 (11) 4983-8899",
                "status":"online"
            },
            {
                "nome": "Jeniffer Gonçalves", 
                "image": "img/user12.png", 
                "profissao":"Diretora de Marketing @ DM9",
                "email": "jennifer.goncalves@inwave.com.br",
                "celular": "+55 (11) 97676-7676",
                "fixo": " +55 (11) 4983-8899",
                "status":"online"
            },
            {
                "nome": "Carol Samora", 
                "image": "img/user13.png", 
                "profissao":"Diretora de Marketing @ DM9",
                "email": "carol.samora@inwave.com.br",
                "celular": "+55 (11) 97676-7676",
                "fixo": " +55 (11) 4983-8899",
                "status":"offline"
            }
        ],
        "conquistas": [
            {"nome": "Fulano", "image": "img/conquista1.png"},
            {"nome": "Fulano", "image": "img/conquista2.png"},
            {"nome": "Fulano", "image": "img/conquista3.png"},
            {"nome": "Fulano", "image": "img/conquista4.png"},
            {"nome": "Fulano", "image": "img/conquista5.png"},
            {"nome": "Fulano", "image": "img/conquista6.png"},
            {"nome": "Fulano", "image": "img/conquista7.png"},
            {"nome": "Fulano", "image": "img/conquista8.png"},
            {"nome": "Fulano", "image": "img/conquista9.png"},
            {"nome": "Fulano", "image": "img/conquista10.png"}

        ],
        "redeSocial": [
            {"nome": "linkedin", "ico": "fa-linkedin", "bg": "font-grey-sure-5"},
            {"nome": "facebook", "ico": "fa-facebook", "bg": "font-blue-dark-2"},
            {"nome": "twitter", "ico": "fa-twitter", "bg": "font-blue-sure"},
            {"nome": "instagram", "ico": "fa-instagram", "bg": "font-orange-sure"}
        ]
   },
   {    
        "id":"4",
        "avatar": "img/img-user-perfil.png",
        "nome": "Jeniffer Gonçalves",
        "profissao": "Marketing Manager @ InWave Interactive",
        "password":"123456789",
        "humor":"Gosto de focar no resultado utilizando a metodologia mais simples possível.",
        "apelido": "JJ",
        "identidade": "4.032.894-40",
        "cpf": "382.207.911-10",
        "fixo": "81 3033-3344",
        "celular": "81 99999-9999",
        "email": "jennifer.goncalves@inwave.com.br",
        "link": "37",
        "comment": "12",
        "conquistas": [
            {"nome": "Fulano", "image": "img/conquista1.png"},
            {"nome": "Fulano", "image": "img/conquista2.png"},
            {"nome": "Fulano", "image": "img/conquista3.png"},
            {"nome": "Fulano", "image": "img/conquista4.png"},
            {"nome": "Fulano", "image": "img/conquista5.png"},
            {"nome": "Fulano", "image": "img/conquista6.png"},
            {"nome": "Fulano", "image": "img/conquista7.png"},
            {"nome": "Fulano", "image": "img/conquista8.png"},
            {"nome": "Fulano", "image": "img/conquista9.png"},
            {"nome": "Fulano", "image": "img/conquista10.png"}

        ],
        "redeSocial": [
            {"nome": "linkedin", "ico": "fa-linkedin", "bg": "font-grey-sure-5"},
            {"nome": "facebook", "ico": "fa-facebook", "bg": "font-blue-dark-2"},
            {"nome": "twitter", "ico": "fa-twitter", "bg": "font-blue-sure"},
            {"nome": "instagram", "ico": "fa-instagram", "bg": "font-orange-sure"}
        ]
   },
   {    
        "id":"5",
        "avatar": "img/img-user-perfil.png",
        "nome": "Jeniffer Gonçalves",
        "profissao": "Marketing Manager @ InWave Interactive",
        "password":"123456789",
        "humor":"Gosto de focar no resultado utilizando a metodologia mais simples possível.",
        "apelido": "JJ",
        "identidade": "4.032.894-40",
        "cpf": "382.207.911-10",
        "fixo": "81 3033-3344",
        "celular": "81 99999-9999",
        "email": "jennifer.goncalves@inwave.com.br",
        "link": "37",
        "comment": "12",
        "conquistas": [
            {"nome": "Fulano", "image": "img/conquista1.png"},
            {"nome": "Fulano", "image": "img/conquista2.png"},
            {"nome": "Fulano", "image": "img/conquista3.png"},
            {"nome": "Fulano", "image": "img/conquista4.png"},
            {"nome": "Fulano", "image": "img/conquista5.png"},
            {"nome": "Fulano", "image": "img/conquista6.png"},
            {"nome": "Fulano", "image": "img/conquista7.png"},
            {"nome": "Fulano", "image": "img/conquista8.png"},
            {"nome": "Fulano", "image": "img/conquista9.png"},
            {"nome": "Fulano", "image": "img/conquista10.png"}

        ],
        "redeSocial": [
            {"nome": "linkedin", "ico": "fa-linkedin", "bg": "font-grey-sure-5"},
            {"nome": "facebook", "ico": "fa-facebook", "bg": "font-blue-dark-2"},
            {"nome": "twitter", "ico": "fa-twitter", "bg": "font-blue-sure"},
            {"nome": "instagram", "ico": "fa-instagram", "bg": "font-orange-sure"}
        ]
   },
   {    
        "id":"6",
        "avatar": "img/img-user-perfil.png",
        "nome": "Jeniffer Gonçalves",
        "profissao": "Marketing Manager @ InWave Interactive",
        "password":"123456789",
        "humor":"Gosto de focar no resultado utilizando a metodologia mais simples possível.",
        "apelido": "JJ",
        "identidade": "4.032.894-40",
        "cpf": "382.207.911-10",
        "fixo": "81 3033-3344",
        "celular": "81 99999-9999",
        "email": "jennifer.goncalves@inwave.com.br",
        "link": "37",
        "comment": "12",
        "conquistas": [
            {"nome": "Fulano", "image": "img/conquista1.png"},
            {"nome": "Fulano", "image": "img/conquista2.png"},
            {"nome": "Fulano", "image": "img/conquista3.png"},
            {"nome": "Fulano", "image": "img/conquista4.png"},
            {"nome": "Fulano", "image": "img/conquista5.png"},
            {"nome": "Fulano", "image": "img/conquista6.png"},
            {"nome": "Fulano", "image": "img/conquista7.png"},
            {"nome": "Fulano", "image": "img/conquista8.png"},
            {"nome": "Fulano", "image": "img/conquista9.png"},
            {"nome": "Fulano", "image": "img/conquista10.png"}

        ],
        "redeSocial": [
            {"nome": "linkedin", "ico": "fa-linkedin", "bg": "font-grey-sure-5"},
            {"nome": "twitter", "ico": "fa-twitter", "bg": "font-blue-sure"},
            {"nome": "instagram", "ico": "fa-instagram", "bg": "font-orange-sure"}
        ]
   },
   {    
        "id":"7",
        "avatar": "img/img-user-perfil.png",
        "nome": "Jeniffer Gonçalves",
        "profissao": "Marketing Manager @ InWave Interactive",
        "password":"123456789",
        "humor":"Gosto de focar no resultado utilizando a metodologia mais simples possível.",
        "apelido": "JJ",
        "identidade": "4.032.894-40",
        "cpf": "382.207.911-10",
        "fixo": "81 3033-3344",
        "celular": "81 99999-9999",
        "email": "jennifer.goncalves@inwave.com.br",
        "link": "37",
        "comment": "12",
        "conquistas": [
            {"nome": "Fulano", "image": "img/conquista1.png"},
            {"nome": "Fulano", "image": "img/conquista2.png"},
            {"nome": "Fulano", "image": "img/conquista3.png"},
            {"nome": "Fulano", "image": "img/conquista4.png"},
            {"nome": "Fulano", "image": "img/conquista5.png"},
            {"nome": "Fulano", "image": "img/conquista6.png"},
            {"nome": "Fulano", "image": "img/conquista7.png"},
            {"nome": "Fulano", "image": "img/conquista8.png"},
            {"nome": "Fulano", "image": "img/conquista9.png"},
            {"nome": "Fulano", "image": "img/conquista10.png"}

        ],
        "redeSocial": [
            {"nome": "linkedin", "ico": "fa-linkedin", "bg": "font-grey-sure-5"},
            {"nome": "facebook", "ico": "fa-facebook", "bg": "font-blue-dark-2"},
            {"nome": "instagram", "ico": "fa-instagram", "bg": "font-orange-sure"}
        ]
   },
   {    
        "id":"8",
        "avatar": "img/img-user-perfil.png",
        "nome": "Jeniffer Gonçalves",
        "profissao": "Marketing Manager @ InWave Interactive",
        "password":"123456789",
        "humor":"Gosto de focar no resultado utilizando a metodologia mais simples possível.",
        "apelido": "JJ",
        "identidade": "4.032.894-40",
        "cpf": "382.207.911-10",
        "fixo": "81 3033-3344",
        "celular": "81 99999-9999",
        "email": "jennifer.goncalves@inwave.com.br",
        "link": "37",
        "comment": "12",
        "conquistas": [
            {"nome": "Fulano", "image": "img/conquista1.png"},
            {"nome": "Fulano", "image": "img/conquista2.png"},
            {"nome": "Fulano", "image": "img/conquista3.png"},
            {"nome": "Fulano", "image": "img/conquista4.png"},
            {"nome": "Fulano", "image": "img/conquista5.png"},
            {"nome": "Fulano", "image": "img/conquista6.png"},
            {"nome": "Fulano", "image": "img/conquista7.png"},
            {"nome": "Fulano", "image": "img/conquista8.png"},
            {"nome": "Fulano", "image": "img/conquista9.png"},
            {"nome": "Fulano", "image": "img/conquista10.png"}

        ],
        "redeSocial": [
            {"nome": "facebook", "ico": "fa-facebook", "bg": "font-blue-dark-2"},
            {"nome": "twitter", "ico": "fa-twitter", "bg": "font-blue-sure"},
            {"nome": "instagram", "ico": "fa-instagram", "bg": "font-orange-sure"}
        ]
   },
   {    
        "id":"9",
        "avatar": "img/img-user-perfil.png",
        "nome": "Jeniffer Gonçalves",
        "profissao": "Marketing Manager @ InWave Interactive",
        "password":"123456789",
        "humor":"Gosto de focar no resultado utilizando a metodologia mais simples possível.",
        "apelido": "JJ",
        "identidade": "4.032.894-40",
        "cpf": "382.207.911-10",
        "fixo": "81 3033-3344",
        "celular": "81 99999-9999",
        "email": "jennifer.goncalves@inwave.com.br",
        "link": "37",
        "comment": "12",
        "conquistas": [
            {"nome": "Fulano", "image": "img/conquista1.png"},
            {"nome": "Fulano", "image": "img/conquista2.png"},
            {"nome": "Fulano", "image": "img/conquista3.png"},
            {"nome": "Fulano", "image": "img/conquista4.png"},
            {"nome": "Fulano", "image": "img/conquista5.png"},
            {"nome": "Fulano", "image": "img/conquista6.png"},
            {"nome": "Fulano", "image": "img/conquista7.png"},
            {"nome": "Fulano", "image": "img/conquista8.png"},
            {"nome": "Fulano", "image": "img/conquista9.png"},
            {"nome": "Fulano", "image": "img/conquista10.png"}

        ],
        "redeSocial": [
            {"nome": "linkedin", "ico": "fa-linkedin", "bg": "font-grey-sure-5"},
            {"nome": "facebook", "ico": "fa-facebook", "bg": "font-blue-dark-2"}
        ]
   },
   {    
        "id":"10",
        "avatar": "img/img-user-perfil.png",
        "nome": "Jeniffer Gonçalves",
        "profissao": "Marketing Manager @ InWave Interactive",
        "password":"123456789",
        "humor":"Gosto de focar no resultado utilizando a metodologia mais simples possível.",
        "apelido": "JJ",
        "identidade": "4.032.894-40",
        "cpf": "382.207.911-10",
        "fixo": "81 3033-3344",
        "celular": "81 99999-9999",
        "email": "jennifer.goncalves@inwave.com.br",
        "link": "37",
        "comment": "12",
        "conquistas": [
            {"nome": "Fulano", "image": "img/conquista1.png"},
            {"nome": "Fulano", "image": "img/conquista2.png"},
            {"nome": "Fulano", "image": "img/conquista3.png"},
            {"nome": "Fulano", "image": "img/conquista4.png"},
            {"nome": "Fulano", "image": "img/conquista5.png"},
            {"nome": "Fulano", "image": "img/conquista6.png"},
            {"nome": "Fulano", "image": "img/conquista7.png"},
            {"nome": "Fulano", "image": "img/conquista8.png"},
            {"nome": "Fulano", "image": "img/conquista9.png"},
            {"nome": "Fulano", "image": "img/conquista10.png"}

        ],
        "redeSocial": [
            {"nome": "linkedin", "ico": "fa-linkedin", "bg": "font-grey-sure-5"},
            {"nome": "facebook", "ico": "fa-facebook", "bg": "font-blue-dark-2"},
            {"nome": "twitter", "ico": "fa-twitter", "bg": "font-blue-sure"},
            {"nome": "instagram", "ico": "fa-instagram", "bg": "font-orange-sure"},
            {"nome": "googleplus", "ico": "ion-social-googleplus", "bg": "font-blue-sure"}
        ]
   }
]