[
	{"id":"1", "nome":"O Poderoso Wordpress", "entrada":"15:00:00", "encerramento":"08:30 - 10:00", "data":"2016-04-19", "checkIn": "08:30 - 09:30", "ico":"fa fa-user", "img":"img/img-evento1.jpg", "title":"Palestra #2332", "descricao":"Steve Jobs", "avaliacao": "3", "like":"75"},
    {"id":"2", "nome":"Coffee Break", "entrada":"09:00:00", "encerramento":"10:00 - 10:30", "data":"2016-04-11", "checkIn": "09:30 - 10:30", "ico":"fa fa-coffee", "img":"img/img-evento2.jpg", "title":"Palestra #1232", "descricao":"Auditório 1", "avaliacao": "4", "like":"58"},
    {"id":"3", "nome":"O Poderoso Drupal", "entrada":"09:00:00", "encerramento":"10:30 - 12:30", "data":"2016-04-11", "checkIn": "09:30 - 10:30", "ico":"fa fa-drupal", "img":"img/img-evento3.jpg", "title":"Palestra #0997", "descricao":"Auditório 3", "avaliacao": "5", "like":"74"},
    {"id":"4", "nome":"As CSSs", "entrada":"15:00:00", "encerramento":"14:00 - 15:30", "data":"2016-04-19", "checkIn": "08:30 - 09:30", "ico":"fa fa-user", "img":"img/img-evento4.jpg", "title":"Palestra #2131", "descricao":"Maujor", "avaliacao": "5", "like":"167"},
    {"id":"5", "nome":"Coffee Break", "entrada":"09:00:00", "encerramento":"15:30 - 16:00", "data":"2016-04-11", "checkIn": "09:30 - 10:30", "ico":"fa fa-coffee", "img":"img/img-evento5.jpg", "title":"Palestra #9080", "descricao":"Auditório 7", "avaliacao": "4", "like":"43"},
    {"id":"6", "nome":"Poderoso Javascript", "entrada":"09:00:00", "encerramento":"16:00 - 17:30", "data":"2016-04-11", "checkIn": "09:30 - 10:30", "ico":"fa fa-univercity", "img":"img/img-evento6.jpg", "title":"Palestra #1234", "descricao":"Auditório 4", "avaliacao": "3", "like":"39"}
]