[
    {	
        "name":"Timeline",
        "link":"#/timeline",
        "ico":"fa fa-edit"
   	},
    {	
        "name":"Mensagens",
        "link":"#/messages",
        "ico":"fa fa-comments"
   	},
    {	
        "name":"Programaçao",
        "link":"#/agenda-event",
        "ico":"ion-ios-book-outline"
   	},
    {	
        "name":"Meu Perfil",
        "link":"#/profile-user",
        "ico":"fa fa-male"
   	},
    {	
        "name":"Menu",
        "link": "",
        "ico":"fa fa-navicon"
   	}
]